%YAML 1.1
%TAG !u! tag:unity3d.com,2011:
--- !u!162 &1
EditorUserSettings:
  m_ObjectHideFlags: 0
  serializedVersion: 4
  m_ConfigSettings:
    RecentlyUsedSceneGuid-0:
      value: 50040354010c080b090c5f7b447a0d4443151c2b7f2b73347a701f30b5e3623a
      flags: 0
    RecentlyUsedSceneGuid-1:
      value: 500404570402510d0c0c542112730b44434e1b2979797131757b4c32e3b76168
      flags: 0
    RecentlyUsedSceneGuid-2:
      value: 07520d5103500d035d5b0f7541765a44474f4e7c7e7075647f714e62b6b0646a
      flags: 0
    RecentlyUsedSceneGuid-3:
      value: 020455565356080859575d7149760c44104f1b297d787f64297b1b30b5b7606f
      flags: 0
    RecentlyUsedSceneGuid-4:
      value: 5700000401510d085c0d592711775944154e1e7f287972657f2c4831e0e26069
      flags: 0
    RecentlyUsedSceneGuid-5:
      value: 5a0700055451590c595d097215270f4412151a732d7d233229704f66bab83661
      flags: 0
    RecentlyUsedSceneGuid-6:
      value: 07050c5501045c0c5e5e0e7146255b4414154f2b292e25667c2f4d61e7b9673c
      flags: 0
    RecentlyUsedSceneGuid-7:
      value: 515250075c0c595e5f5a5e71122159444e4e4a2f7a7d7f602f284d66b4b76661
      flags: 0
    vcSharedLogLevel:
      value: 0d5e400f0650
      flags: 0
  m_VCAutomaticAdd: 1
  m_VCDebugCom: 0
  m_VCDebugCmd: 0
  m_VCDebugOut: 0
  m_SemanticMergeMode: 2
  m_DesiredImportWorkerCount: 8
  m_StandbyImportWorkerCount: 2
  m_IdleImportWorkerShutdownDelay: 60000
  m_VCShowFailedCheckout: 1
  m_VCOverwriteFailedCheckoutAssets: 1
  m_VCProjectOverlayIcons: 1
  m_VCHierarchyOverlayIcons: 1
  m_VCOtherOverlayIcons: 1
  m_VCAllowAsyncUpdate: 1
  m_ArtifactGarbageCollection: 1
